{
	"brandstrong_api": {
		"host": "http://localhost:3000",
		"mongodb": {
			"main": "mongodb://127.0.0.1:27017/brandstrong_development"
		},
		"redis": {
			"host": "127.0.0.1",
			"port": "6379",
			"db": 0
		},
		"s3": {
			"bucket": "brandstrong-development",
			"access_key_id": "AKIAIH4O4UR5LB2XTGMA",
			"secret_access_key": "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"
		}
	}
}
